<svg width="173" height="112" viewBox="0 0 173 112" fill="none" xmlns="http://www.w3.org/2000/svg">
<g opacity="0.8">
<rect x="148.201" y="-51" width="40" height="240" transform="rotate(38.134 148.201 -51)" fill="#FEF4D6"/>
<rect x="198.232" y="-51" width="40" height="240" transform="rotate(38.134 198.232 -51)" fill="#FFDF88"/>
<rect x="249.232" y="-52" width="40" height="240" transform="rotate(38.134 249.232 -52)" fill="#FFCA4A"/>
</g>
</svg>
