<svg width="274" height="187" viewBox="0 0 274 187" fill="none" xmlns="http://www.w3.org/2000/svg">
<path d="M131.995 170.037C167.876 170.037 196.964 140.963 196.964 105.098C196.964 69.2327 167.876 40.1582 131.995 40.1582C96.1144 40.1582 67.0271 69.2327 67.0271 105.098C67.0271 140.963 96.1144 170.037 131.995 170.037Z" fill="#F6F7E7"/>
<path d="M193.286 99.2217C220.453 99.2217 242.476 77.2087 242.476 50.0542C242.476 22.8998 220.453 0.886719 193.286 0.886719C166.12 0.886719 144.097 22.8998 144.097 50.0542C144.097 77.2087 166.12 99.2217 193.286 99.2217Z" fill="#F07A6D"/>
<path d="M159.331 101.565L176.938 177.309L200.433 171.852L182.827 96.1083L159.331 101.565Z" fill="#F69B98"/>
<path d="M184.195 183.865L243.735 170.038C246.705 169.348 248.553 166.383 247.863 163.414L244.902 150.679C244.212 147.71 241.246 145.863 238.276 146.553L178.736 160.38C175.766 161.07 173.918 164.035 174.608 167.003L177.569 179.739C178.259 182.708 181.225 184.555 184.195 183.865Z" fill="#F69B98"/>
<path d="M82.6253 94.1566L65.0193 169.9L88.5148 175.357L106.121 99.6131L82.6253 94.1566Z" fill="#F69B98"/>
<path d="M86.7163 158.43L27.1762 144.602C24.2065 143.913 21.2399 145.76 20.5499 148.728L17.5895 161.464C16.8996 164.432 18.7476 167.398 21.7172 168.087L81.2573 181.915C84.2269 182.604 87.1936 180.757 87.8836 177.789L90.8439 165.053C91.5339 162.085 89.6859 159.119 86.7163 158.43Z" fill="#F69B98"/>
<path fill-rule="evenodd" clip-rule="evenodd" d="M94.2977 117.066L93.4927 184.31H170.566V148.133L193.286 141.571C193.286 141.571 189.064 117.266 186.209 100.831C185.444 96.4295 183.321 92.3773 180.138 89.2412C176.955 86.1051 172.871 84.0419 168.457 83.3403C142.953 79.1932 124.906 79.0311 97.3232 83.243C92.9573 83.8916 88.8986 85.8729 85.7024 88.9157C82.5062 91.9585 80.3288 95.9142 79.4681 100.241C76.1271 116.969 71.0994 142.229 71.0994 142.229L93.9114 148.56L94.2977 117.066Z" fill="#F5D829"/>
<path fill-rule="evenodd" clip-rule="evenodd" d="M122.586 110.481C122.586 110.481 128.693 119.53 135.726 116.6C142.759 113.67 148.624 104.736 148.624 97.9983C148.624 91.2601 124.685 111.828 122.586 110.481Z" fill="#F69B98"/>
<path fill-rule="evenodd" clip-rule="evenodd" d="M113.412 75.1068C112.654 79.1479 110.319 93.5114 112.872 101.045C115.426 108.579 126.85 113.269 131.421 112.868C135.991 112.467 145.13 107.085 147.28 99.4212C149.429 91.7576 150.102 76.725 150.102 76.725C150.102 76.725 148.356 64.3659 138.011 60.7404C127.667 57.1149 115.031 66.5147 113.418 75.1127L113.412 75.1068Z" fill="#F69B98"/>
<path fill-rule="evenodd" clip-rule="evenodd" d="M111.575 85.3412C111.575 85.3412 109.166 83.4519 105.972 86.031C102.779 88.6101 103.318 93.338 107.09 96.0026C110.862 98.6672 113.112 96.3474 113.026 95.1448C112.941 93.9422 111.552 85.3412 111.552 85.3412H111.575Z" fill="#F69B98"/>
<path d="M118.909 80.5814C118.909 80.5814 120.277 79.594 121.698 80.4163L118.909 80.5814ZM135.711 80.3073C135.711 80.3073 137.08 79.3228 138.501 80.1422L135.711 80.3073Z" fill="#D9D9D9"/>
<path d="M135.711 80.3073C135.711 80.3073 137.08 79.3228 138.501 80.1422M118.909 80.5814C118.909 80.5814 120.277 79.594 121.698 80.4163L118.909 80.5814Z" stroke="#242632" stroke-miterlimit="10"/>
<path fill-rule="evenodd" clip-rule="evenodd" d="M137.12 80.207C137.766 80.207 138.3 80.8172 138.3 81.5659C138.3 82.3145 137.775 82.9247 137.12 82.9247C136.466 82.9247 135.941 82.3175 135.941 81.5659C135.941 80.8142 136.466 80.207 137.12 80.207Z" fill="#242632"/>
<path fill-rule="evenodd" clip-rule="evenodd" d="M120.307 80.5215C120.953 80.5215 121.486 81.1316 121.486 81.8803C121.486 82.629 120.962 83.2391 120.307 83.2391C119.652 83.2391 119.127 82.6319 119.127 81.8803C119.127 81.1287 119.649 80.5215 120.307 80.5215Z" fill="#242632"/>
<path fill-rule="evenodd" clip-rule="evenodd" d="M122.754 74.019C121.356 74.2842 118.741 75.8553 117.709 76.5951C116.582 77.4028 117.667 74.9504 118.956 73.5474C120.245 72.1443 121.185 70.8238 122.082 72.0028C122.978 73.1818 123.58 73.8598 122.754 74.019Z" fill="#242632"/>
<path fill-rule="evenodd" clip-rule="evenodd" d="M136.172 73.7555C137.569 74.0238 140.185 75.5948 141.214 76.3317C142.343 77.1393 142.29 75.247 140.53 73.5816C139.147 72.2729 137.74 70.5633 136.844 71.7394C135.947 72.9155 135.346 73.5993 136.172 73.7555Z" fill="#242632"/>
<path fill-rule="evenodd" clip-rule="evenodd" d="M148.733 86.3733C151.142 84.9997 153.021 84.1479 154.84 86.2023C157.471 89.1735 157.68 95.9764 152.345 95.9293C148.014 95.8821 147.627 94.4555 147.627 94.4555C147.627 94.4555 146.336 87.7498 148.745 86.3733H148.733Z" fill="#F69B98"/>
<path d="M142.774 105.931C137.911 110.919 126.116 115.34 117.216 107.196C111.1 101.596 112.203 91.8392 112.203 91.8392M150.087 76.8066C150.087 76.8066 149.792 82.2832 148.793 86.4658" stroke="#242632" stroke-width="2" stroke-miterlimit="10"/>
<path d="M54.9226 184.725H216.055" stroke="#231F20" stroke-width="4" stroke-miterlimit="1.5" stroke-linecap="square"/>
<path fill-rule="evenodd" clip-rule="evenodd" d="M15.6707 178.519L14.444 133.501C14.444 133.501 14.7831 130.48 17.847 130.645C20.9108 130.81 22.8394 130.35 22.9131 134.739C22.9868 139.128 23.612 174.098 23.7978 177.24C23.9835 180.382 18.1182 182.982 15.6736 178.519H15.6707Z" fill="#231F20" stroke="#231F20" stroke-width="2" stroke-miterlimit="1.5" stroke-linecap="square"/>
<path fill-rule="evenodd" clip-rule="evenodd" d="M24.2671 94.4535C28.0344 95.3291 31.4573 97.3016 34.1031 100.122C36.749 102.942 38.4988 106.483 39.1314 110.297C39.7639 114.111 39.2509 118.027 37.657 121.549C36.0632 125.072 33.4602 128.043 30.1771 130.087C26.894 132.131 23.0783 133.156 19.2125 133.032C15.3466 132.908 11.6043 131.642 8.45864 129.392C5.31298 127.143 2.90527 124.011 1.53996 120.394C0.174655 116.777 -0.0869381 112.836 0.788259 109.07C1.9642 104.021 5.09789 99.6448 9.50056 96.9039C13.9032 94.163 19.2146 93.2816 24.2671 94.4535Z" fill="#231F20"/>
<path fill-rule="evenodd" clip-rule="evenodd" d="M22.5094 100.754C25.072 101.349 27.4006 102.691 29.2005 104.609C31.0004 106.527 32.1909 108.935 32.6215 111.53C33.052 114.124 32.7032 116.788 31.6192 119.184C30.5353 121.58 28.7648 123.601 26.5316 124.991C24.2985 126.382 21.703 127.079 19.0734 126.995C16.4438 126.911 13.8982 126.05 11.7585 124.519C9.61879 122.989 7.98105 120.859 7.0524 118.399C6.12375 115.938 5.94589 113.258 6.54132 110.696C7.3412 107.262 9.47242 104.286 12.4666 102.422C15.4608 100.557 19.073 99.9575 22.5094 100.754Z" fill="#DCDEF0" stroke="#231F20" stroke-miterlimit="1.5" stroke-linecap="square"/>
<path fill-rule="evenodd" clip-rule="evenodd" d="M20.7753 140.304C29.6661 142.367 35.2985 150.874 33.3434 159.286C31.3883 167.698 22.58 172.845 13.6892 170.782C4.79841 168.718 -0.830964 160.215 1.11528 151.802C3.06153 143.39 11.8757 138.243 20.7665 140.307L20.7753 140.304Z" fill="#F69B98"/>
<path d="M32.9891 161.452L19.5216 162.663M31.783 148.645L18.3156 149.859L31.783 148.645ZM32.5232 154.834L19.0557 156.046L32.5232 154.834Z" stroke="#231F20" stroke-width="2" stroke-miterlimit="1.5" stroke-linecap="square"/>
<path fill-rule="evenodd" clip-rule="evenodd" d="M133.485 67.5881C133.485 67.5881 114.291 74.4795 112.127 70.6358C109.962 66.7922 119.419 49.213 134.803 53.8348C150.188 58.4565 148.625 63.6118 148.625 63.6118C148.625 63.6118 155.466 61.743 155.687 65.9168C155.908 70.0905 149.518 81.866 149.633 81.6361C149.748 81.4062 151.73 66.7244 133.485 67.5881Z" fill="#242632"/>
<path fill-rule="evenodd" clip-rule="evenodd" d="M115.332 60.9043C115.332 60.9043 108.043 62.9352 109.856 70.3512C111.67 77.7673 112.448 80.3346 112.448 80.3346C112.448 80.3346 113.551 73.0188 114.672 71.5479C115.792 70.0771 115.332 60.9043 115.332 60.9043Z" fill="#242632"/>
<path fill-rule="evenodd" clip-rule="evenodd" d="M25.1335 105.1C25.1335 105.1 29.4861 108.56 29.0113 112.784L25.1335 105.1Z" fill="#DCDEF0"/>
<path d="M25.1335 105.1C25.1335 105.1 29.4861 108.56 29.0113 112.784" stroke="white" stroke-width="4" stroke-miterlimit="1.5" stroke-linecap="square"/>
<path d="M28.6749 115.244L28.3446 117.228" stroke="white" stroke-width="4" stroke-miterlimit="1.5" stroke-linecap="square"/>
<path d="M120.307 109.475C120.307 109.475 120.251 118.532 130.908 120.469" stroke="#242632" stroke-width="2" stroke-miterlimit="10"/>
<path d="M129.356 81.8809L124.541 88.3213L127.852 88.8548L125.794 92.5658" stroke="#242632" stroke-width="2" stroke-miterlimit="10"/>
<path d="M123.146 99.2222C123.146 99.2222 132.208 93.6218 134.647 97.2326" stroke="#242632" stroke-width="3" stroke-miterlimit="10"/>
<path d="M94.2834 117.064L93.6052 174.704" stroke="#242632" stroke-width="2" stroke-miterlimit="10"/>
<path d="M170.566 119.236L170.395 161.457" stroke="white" stroke-width="2" stroke-miterlimit="10"/>
<path d="M254.665 139.153L235.772 143.956C233.878 144.438 232.733 146.363 233.215 148.256L238.59 169.381C239.071 171.274 240.997 172.418 242.891 171.937L261.785 167.134C263.679 166.652 264.824 164.727 264.342 162.834L258.967 141.709C258.485 139.816 256.559 138.672 254.665 139.153Z" fill="#F69B98"/>
<path d="M234.914 131.446L232.265 131.99C230.617 132.329 229.556 133.939 229.895 135.586L232.62 148.832C232.959 150.479 234.57 151.54 236.217 151.201L238.866 150.657C240.514 150.318 241.575 148.708 241.236 147.061L238.511 133.815C238.172 132.168 236.562 131.107 234.914 131.446Z" fill="#F69B98"/>
<path d="M266.145 136.363L252.45 139.844C251.153 140.174 250.369 141.493 250.699 142.79L251.157 144.592C251.487 145.889 252.806 146.673 254.104 146.343L267.799 142.861C269.096 142.532 269.88 141.213 269.55 139.916L269.092 138.113C268.762 136.817 267.443 136.033 266.145 136.363Z" fill="#F69B98"/>
<path d="M268.799 143.271L255.104 146.752C253.807 147.082 253.022 148.401 253.352 149.698L253.811 151.5C254.141 152.797 255.46 153.581 256.758 153.251L270.453 149.77C271.75 149.44 272.534 148.121 272.204 146.824L271.746 145.022C271.416 143.725 270.096 142.941 268.799 143.271Z" fill="#F69B98"/>
<path d="M269.089 150.556L255.394 154.038C254.096 154.367 253.312 155.686 253.642 156.983L254.101 158.785C254.431 160.082 255.75 160.866 257.048 160.536L270.742 157.055C272.04 156.725 272.824 155.406 272.494 154.109L272.035 152.307C271.705 151.01 270.386 150.226 269.089 150.556Z" fill="#F69B98"/>
<path d="M267.985 158.441L254.29 161.922C252.993 162.252 252.209 163.571 252.539 164.868L252.997 166.67C253.327 167.967 254.647 168.751 255.944 168.421L269.639 164.939C270.936 164.61 271.721 163.291 271.391 161.994L270.932 160.192C270.602 158.895 269.283 158.111 267.985 158.441Z" fill="#F69B98"/>
<path d="M268.107 142.482L255.262 146.022" stroke="#242632" stroke-width="2" stroke-miterlimit="10"/>
<path d="M270.1 149.963L257.258 153.503" stroke="#242632" stroke-width="2" stroke-miterlimit="10"/>
<path d="M270.537 156.945L257.695 160.485" stroke="#242632" stroke-width="2" stroke-miterlimit="10"/>
<path d="M168.196 122.875H96.97V131.384H168.196V122.875Z" fill="white"/>
<path d="M167.951 132.451H96.7249V134.756H167.951V132.451Z" fill="white"/>
<path fill-rule="evenodd" clip-rule="evenodd" d="M201.712 50.2426L212.773 61.2989L204.165 69.9028L193.104 58.8465L182.409 69.5314L173.801 60.9275L184.493 50.2426L173.429 39.1804L182.037 30.5765L193.104 41.6357L204.537 30.2051L213.145 38.809L201.712 50.2426Z" fill="white"/>
<path fill-rule="evenodd" clip-rule="evenodd" d="M62.6457 91.2892L68.7941 97.4319L64.0111 102.213L57.8656 96.0701L51.9237 102.007L47.1406 97.2256L53.0826 91.2892L46.9342 85.1435L51.7172 80.3626L57.8656 86.5082L64.2175 80.1562L69.0005 84.9372L62.6457 91.2892Z" fill="#DCDEF0"/>
<path fill-rule="evenodd" clip-rule="evenodd" d="M97.2116 33.7722L103.676 40.2332L98.6447 45.2617L92.1808 38.8007L85.9322 45.0436L80.9014 40.0151L87.1501 33.7722L80.6832 27.3082L85.714 22.2796L92.1808 28.7436L98.863 22.0645L103.894 27.093L97.2116 33.7722Z" stroke="#DCDEF0" stroke-width="5" stroke-miterlimit="10"/>
<path fill-rule="evenodd" clip-rule="evenodd" d="M216.943 113.635L220.301 116.989L217.689 119.603L214.33 116.246L211.086 119.488L208.471 116.877L211.717 113.635L208.359 110.277L210.971 107.663L214.33 111.023L217.801 107.551L220.413 110.162L216.943 113.635Z" fill="#DCDEF0"/>
</svg>
