<svg width="416" height="369" viewBox="0 0 416 369" fill="none" xmlns="http://www.w3.org/2000/svg">
<path d="M259.963 229.274C305.639 229.274 342.667 192.246 342.667 146.57C342.667 100.894 305.639 63.8662 259.963 63.8662C214.287 63.8662 177.259 100.894 177.259 146.57C177.259 192.246 214.287 229.274 259.963 229.274Z" fill="#F6F7E7"/>
<path d="M202.816 231.841C156.325 200.278 144.218 137.009 175.781 90.5073C207.344 44.0059 270.613 31.9099 317.114 63.4673C363.616 95.0246 375.712 158.299 344.155 204.801" stroke="#F8D902" stroke-width="5" stroke-miterlimit="10"/>
<path d="M295.771 31.21C355.813 42.0526 394.912 103.898 383.093 169.343" stroke="#E4E7F9" stroke-width="4" stroke-miterlimit="10"/>
<path d="M303.344 83.5312C338.453 105.003 347.424 154.283 323.376 193.611" stroke="#242632" stroke-width="4" stroke-miterlimit="10"/>
<path d="M295.675 343.382C295.488 342.774 279.472 298.118 306.24 293.366C306.24 293.366 311.701 252.331 324.203 256.203C324.203 256.203 331.248 255.323 346.571 242.47C361.893 229.617 378.448 224.87 379.504 231.729C380.56 238.587 365.237 253.211 363.477 268.886C361.717 284.561 367.877 289.489 359.952 296.886C352.027 304.283 332.656 313.953 333.184 321.19C333.712 328.427 340.229 328.23 340.229 328.23C340.229 328.23 350.619 330.87 309.056 347.601C309.056 347.606 297.963 350.859 295.675 343.382Z" fill="#F9DA02"/>
<path d="M358.368 307.634C358.368 307.634 393.413 300.94 396.939 309.394C400.464 317.847 376.507 319.431 373.691 325.068C370.875 330.706 373.515 336.69 366.997 342.855C360.48 349.021 361.893 352.541 345.867 350.076C329.84 347.612 321.243 350.226 308 347.858C308.016 347.858 344.459 307.964 358.368 307.634Z" fill="#FFE490"/>
<path d="M298.405 341.975C298.405 341.975 321.648 269.719 353.616 248.919" stroke="white" stroke-width="4" stroke-miterlimit="10"/>
<path d="M321.739 343.382C321.739 343.382 332.656 343.558 360.832 318.374C360.832 318.374 371.579 308.864 380.821 308.864" stroke="white" stroke-width="4" stroke-miterlimit="10"/>
<path d="M320.085 268.144C320.347 268.938 321.739 286.634 321.739 286.634" stroke="white" stroke-width="4" stroke-miterlimit="10"/>
<path d="M328.011 301.6C327.611 302.224 308.549 315.392 308.549 315.392" stroke="white" stroke-width="4" stroke-miterlimit="10"/>
<path d="M158.559 22.2651L134.532 31.7441L145.36 59.1895L169.387 49.7105L158.559 22.2651Z" fill="#DCDEF0"/>
<path d="M43.2747 101.644C43.2747 101.644 53.9415 117.841 57.4722 121.041C61.0028 124.241 68.6026 105.766 68.6026 105.766V104.476L43.2747 101.644Z" fill="#FFB3A2"/>
<path fill-rule="evenodd" clip-rule="evenodd" d="M145.067 120.647C145.067 120.647 116.923 178.567 58.0107 121.436L68.7893 106.15C68.7893 106.15 105.931 146.524 126.816 106.828L134.005 105.271L145.067 112.396V120.647Z" fill="#F5D829"/>
<path d="M164.076 73.81L149.282 71.4189L144.806 99.1126L159.601 101.504L164.076 73.81Z" fill="#FFB3A2"/>
<path d="M315.077 333.143C315.2 342.743 307.637 351.645 296.912 351.613C270.704 351.533 244.491 351.661 218.272 351.527C207.147 351.469 199.157 343.063 199.152 331.821C199.152 291.01 199.152 250.197 199.152 209.383C199.152 201.323 199.152 193.266 199.152 185.213C199.152 177.042 199.152 168.877 199.152 160.711C199.152 152.759 199.152 144.813 199.189 136.855C199.264 125.122 206.272 118.119 217.904 118.114C243.589 118.114 269.269 118.114 294.944 118.061C299.712 118.061 304.037 119.085 307.813 122.002C312.245 125.426 314.923 129.73 314.917 135.597C314.857 168.734 314.848 201.872 314.891 235.01H314.944C314.912 267.725 314.667 300.439 315.077 333.143Z" fill="#242632"/>
<path d="M307.429 331.597C307.429 332.13 307.429 332.664 307.429 333.197C306.971 340.37 303.163 343.64 295.381 343.64H259.115H257.093H219.226C211.12 343.64 207.147 340.37 206.667 333.197C206.667 332.664 206.667 332.13 206.667 331.597C206.752 291.668 206.836 251.739 206.917 211.81C206.917 203.277 206.917 194.743 206.917 186.21C206.917 170.747 206.926 155.28 206.944 139.81C206.924 138.253 207.022 136.696 207.237 135.154C208.064 129.933 211.408 126.514 216.256 126.194C217.893 126.082 219.557 126.023 221.2 126.023C221.653 126.023 222.107 126.023 222.571 126.023C223.904 126.023 225.237 126.098 226.571 126.189C227.483 126.253 228.784 127.362 229.099 128.247C230.384 131.906 232.667 133.959 236.528 133.97C243.39 134.002 250.247 134.018 257.099 134.018H259.12C265.666 134.018 272.215 134.002 278.768 133.97C282.475 133.97 284.667 131.906 285.899 128.247C286.203 127.362 287.451 126.253 288.325 126.189C289.605 126.098 290.885 126.039 292.16 126.023C292.603 126.023 293.04 126.023 293.472 126.023C295.072 126.023 296.672 126.082 298.219 126.194C302.869 126.514 306.08 129.927 306.869 135.154C307.076 136.697 307.171 138.253 307.152 139.81C307.173 155.273 307.182 170.74 307.179 186.21C307.179 194.743 307.179 203.277 307.179 211.81C307.26 251.736 307.344 291.664 307.429 331.597Z" fill="white"/>
<path fill-rule="evenodd" clip-rule="evenodd" d="M189.125 334.587L165.12 334.395L163.173 313.733L185.045 315.248L189.125 334.587Z" fill="#F07A6D"/>
<path fill-rule="evenodd" clip-rule="evenodd" d="M140.277 311.973L140.528 330.837L118.688 330.747L119.52 311.504L140.277 311.973Z" fill="#F07A6D"/>
<path fill-rule="evenodd" clip-rule="evenodd" d="M163.37 166.896C163.37 166.896 176.485 219.584 178.97 229.989C181.456 240.394 202.261 316.821 202.261 316.821L152.325 314.213L141.472 240.042L149.387 314.213L109.584 313.082L115.109 167.797L163.37 166.896Z" fill="#242632"/>
<path fill-rule="evenodd" clip-rule="evenodd" d="M115.312 143.298L115.36 143.186C115.354 143.287 115.312 143.298 115.312 143.298Z" fill="#F5D829"/>
<path fill-rule="evenodd" clip-rule="evenodd" d="M197.563 352.23C208.037 350.251 190.747 334.262 189.125 332.8C187.504 331.339 168.528 330.203 165.611 331.99C162.693 333.776 162.203 339.611 162.688 345.291C163.173 350.971 168.528 351.291 178.907 351.291C189.285 351.291 193.893 352.923 197.573 352.23H197.563Z" fill="#242632"/>
<path fill-rule="evenodd" clip-rule="evenodd" d="M140.528 330.844L142.357 349.361C142.357 349.361 110.384 350.023 107.893 349.943C105.403 349.863 99.5041 348.033 104.32 342.801C109.136 337.569 118.357 329.927 118.357 329.927L140.528 330.844Z" fill="#242632"/>
<path fill-rule="evenodd" clip-rule="evenodd" d="M144.944 65.0714C144.944 65.0714 142.523 66.9487 141.259 71.9034C141.259 71.9034 137.093 70.3034 136.021 75.0074C134.949 79.7114 140.336 84.7994 143.221 82.2074L142.203 77.9727C142.203 77.9727 143.493 83.9994 144.869 87.6527C146.693 92.4527 160.08 100.837 166.816 90.2287C172.816 80.7834 174.549 76.25 173.259 67.7327C171.968 59.2154 166.352 59.9994 164.149 57.77C161.946 55.5407 158.437 39.3807 144.949 65.0714H144.944Z" fill="#FFB3A2"/>
<path fill-rule="evenodd" clip-rule="evenodd" d="M141.6 78.0067C141.749 79.9485 142.065 81.8738 142.544 83.7613C143.003 85.6576 143.628 87.51 144.411 89.2973L144.661 89.8307L145.787 89.3293L145.536 88.7693C144.781 87.0481 144.179 85.2633 143.739 83.436C143.278 81.6234 142.973 79.775 142.826 77.9107L142.789 77.292L141.563 77.3613L141.595 77.9747L141.6 78.0067Z" fill="#242632"/>
<path fill-rule="evenodd" clip-rule="evenodd" d="M173.744 72.8008C173.744 72.8008 178.101 71.2008 178.544 74.9341C178.987 78.6675 174.277 83.2968 171.877 79.8941C171.877 79.8941 173.45 78.3315 173.76 72.7741L173.744 72.8008Z" fill="#FFB3A2"/>
<path fill-rule="evenodd" clip-rule="evenodd" d="M172.395 77.9464C172.395 77.9464 169.925 86.0317 165.285 91.0398C163.003 93.5038 160.197 95.2264 156.864 94.6877C155.815 94.5179 154.786 94.2427 153.792 93.8664C152.81 93.5083 151.878 93.0262 151.019 92.4317L150.528 92.0531L149.781 93.0344L150.267 93.4078C151.221 94.0753 152.259 94.6134 153.355 95.0078C154.428 95.4143 155.539 95.7109 156.672 95.8931C160.405 96.5011 163.605 94.6397 166.187 91.8664C170.987 86.6771 173.573 78.2931 173.573 78.2931L173.755 77.7064L172.576 77.3438L172.395 77.9357V77.9464Z" fill="#242632"/>
<path fill-rule="evenodd" clip-rule="evenodd" d="M138.661 65.2971C138.661 65.2971 151.995 64.1291 156.229 54.0971C156.229 54.0971 161.408 61.5265 169.701 66.0065C177.995 70.4865 180.064 67.8198 180.064 67.8198L178.011 60.9984C178.011 60.9984 159.92 47.9424 156.891 48.0544C153.861 48.1664 137.648 61.2331 138.672 65.2704L138.661 65.2971Z" fill="#242632"/>
<path fill-rule="evenodd" clip-rule="evenodd" d="M168.016 71.8608C168.169 71.905 168.312 71.9789 168.437 72.0785C168.561 72.1781 168.665 72.3013 168.742 72.4411C168.819 72.5808 168.867 72.7344 168.884 72.8929C168.901 73.0514 168.887 73.2118 168.843 73.3648C168.774 73.6794 168.583 73.9537 168.312 74.1277C168.041 74.3016 167.712 74.361 167.397 74.2928C167.088 74.2013 166.828 73.9912 166.673 73.7085C166.518 73.4258 166.481 73.0933 166.57 72.7835C166.641 72.47 166.832 72.1969 167.103 72.0241C167.374 71.8512 167.702 71.7925 168.016 71.8608Z" fill="#242632"/>
<path fill-rule="evenodd" clip-rule="evenodd" d="M155.173 69.1367C155.325 69.1786 155.467 69.2501 155.592 69.3471C155.716 69.4442 155.819 69.5649 155.897 69.7022C155.974 69.8395 156.023 69.9908 156.042 70.1473C156.061 70.3038 156.048 70.4624 156.005 70.614C155.971 70.7682 155.906 70.914 155.814 71.0429C155.723 71.1719 155.607 71.2814 155.473 71.3652C155.339 71.4491 155.19 71.5055 155.034 71.5313C154.878 71.5571 154.719 71.5516 154.565 71.5153C154.413 71.4729 154.271 71.4008 154.147 71.3032C154.022 71.2057 153.919 71.0845 153.841 70.9468C153.764 70.809 153.715 70.6574 153.696 70.5005C153.678 70.3437 153.69 70.1847 153.733 70.0327C153.768 69.879 153.834 69.7338 153.925 69.6054C154.017 69.4771 154.133 69.3681 154.267 69.2848C154.4 69.2015 154.55 69.1455 154.705 69.1201C154.861 69.0947 155.02 69.1003 155.173 69.1367Z" fill="#242632"/>
<path d="M162.384 72.7793L164.395 78.7526L160.763 79.1259L161.915 81.5473" stroke="#242632" stroke-width="2" stroke-miterlimit="10"/>
<path d="M154.192 84C154.192 84 159.44 87.5307 162.512 86.1333" stroke="#242632" stroke-width="2" stroke-miterlimit="10"/>
<path d="M154.016 68.9121L156.331 69.3495" stroke="#242632" stroke-width="2" stroke-miterlimit="10"/>
<path d="M166.677 71.5205L169.211 71.9365" stroke="#242632" stroke-width="2" stroke-miterlimit="10"/>
<path d="M169.787 69.03C169.787 69.03 166.72 68.998 166.426 68.0006C166.133 67.0033 169.701 66.5873 169.787 69.03Z" fill="#242632"/>
<path d="M154.037 65.8307C154.037 65.8307 156.96 66.7747 157.552 65.9214C158.144 65.068 154.891 63.532 154.037 65.8307Z" fill="#242632"/>
<path d="M186.48 258.476C186.48 258.476 190.72 274.225 190.672 274.054C190.624 273.884 147.317 279.996 147.317 279.996L143.456 253.606L186.48 258.476Z" fill="#242632"/>
<path d="M144.379 267.27L144.667 270.017C144.667 270.204 111.221 270.017 111.221 270.017L111.845 253.606L143.157 255.862L144.379 267.27Z" fill="#242632"/>
<path fill-rule="evenodd" clip-rule="evenodd" d="M115.109 167.798C115.109 167.798 116.635 102.32 133.243 101.616C149.851 100.912 173.648 87.5309 163.36 166.896L115.109 167.798Z" fill="#F5D829"/>
<path fill-rule="evenodd" clip-rule="evenodd" d="M158.426 118.929H218.064C234.347 91.0948 154.064 102.012 154.064 102.012L158.426 118.929Z" fill="#F5D829"/>
<path fill-rule="evenodd" clip-rule="evenodd" d="M218.064 118.929L209.461 134.076H187.141L202.603 103.873L218.064 115.681V118.929Z" fill="#F5D829"/>
<path d="M198.144 151.137C204.839 151.137 210.267 145.709 210.267 139.014C210.267 132.319 204.839 126.892 198.144 126.892C191.449 126.892 186.021 132.319 186.021 139.014C186.021 145.709 191.449 151.137 198.144 151.137Z" fill="#FFB3A2"/>
<path fill-rule="evenodd" clip-rule="evenodd" d="M141.568 72.4542C137.024 62.9608 137.536 57.5209 138.613 50.7102C139.691 43.8995 151.909 50.7102 151.909 50.7102C151.909 50.7102 164.528 34.9448 178 60.9982C178 60.9982 181.909 66.0649 180.064 67.7982C178.219 69.5315 163.344 56.5342 163.344 56.5342L156.229 54.0968L146.832 55.2382L145.973 63.4089L141.568 72.4542Z" fill="#242632"/>
<path d="M64.5598 101.759C63.7132 102.293 62.6908 102.473 61.713 102.259C60.7351 102.046 59.8804 101.456 59.3333 100.618L56.1333 95.6261C55.867 95.2132 55.6859 94.7514 55.6002 94.2677C55.5145 93.7839 55.526 93.2879 55.6343 92.8087C55.7426 92.3295 55.9454 91.8768 56.2307 91.4768C56.516 91.0769 56.8782 90.7378 57.296 90.4794C58.1437 89.9476 59.1662 89.7698 60.1437 89.9842C61.1212 90.1987 61.9754 90.7883 62.5226 91.6261L65.7492 96.6128C66.0142 97.0273 66.1939 97.4905 66.2775 97.9753C66.3612 98.4602 66.3474 98.9568 66.2367 99.4362C66.1259 99.9155 65.9204 100.368 65.6325 100.767C65.3446 101.166 64.9799 101.503 64.5598 101.759Z" fill="#F07A6D"/>
<path d="M68.5813 96.8975V105.399H48.8748C47.7342 105.401 46.6384 104.955 45.824 104.156L36.7253 95.1962C36.3254 94.8039 36.0078 94.3359 35.7909 93.8194C35.574 93.3029 35.4622 92.7483 35.4622 92.1882C35.4622 91.628 35.574 91.0735 35.7909 90.557C36.0078 90.0405 36.3254 89.5724 36.7253 89.1802C37.5397 88.3818 38.6355 87.9355 39.7761 87.9375C40.9183 87.9346 42.0159 88.381 42.832 89.1802L50.6667 96.8975H68.5813Z" fill="#FFB3A2"/>
<path d="M73.6693 91.1579C73.6703 92.1944 73.601 93.2296 73.4615 94.2566H27.2479C27.1084 93.2296 27.0391 92.1944 27.0401 91.1579C27.0401 78.4753 37.4773 68.2246 50.3573 68.2246C63.2373 68.2246 73.6693 78.4753 73.6693 91.1579Z" fill="#DCDEF0"/>
<path d="M82.0054 94.2559H18.704V96.9704H82.0054V94.2559Z" fill="#FFE490"/>
<path d="M53.312 96.8438H33.2374C31.744 96.8438 30.5334 98.0544 30.5334 99.5478C30.5334 101.041 31.744 102.252 33.2374 102.252H53.312C54.8054 102.252 56.016 101.041 56.016 99.5478C56.016 98.0544 54.8054 96.8438 53.312 96.8438Z" fill="#FFB3A2"/>
<path d="M55.5146 73.1309C55.5146 73.1309 65.0773 76.0909 68.4693 84.8642" stroke="white" stroke-width="6" stroke-miterlimit="10"/>
<path d="M131.141 102.096C131.141 102.096 117.643 101.264 115.109 167.814" stroke="#242632" stroke-width="3" stroke-miterlimit="10"/>
<path d="M58.0107 121.436C58.0107 121.436 86.4961 153.436 116.587 145.228" stroke="#242632" stroke-width="3" stroke-miterlimit="10"/>
<path d="M189.285 147.286L189.947 140.075" stroke="#242632" stroke-width="3" stroke-miterlimit="10"/>
<path d="M192.976 150.229L193.632 143.019" stroke="#242632" stroke-width="3" stroke-miterlimit="10"/>
<path d="M197.813 150.898L198.475 143.682" stroke="#242632" stroke-width="3" stroke-miterlimit="10"/>
<path d="M201.936 150.229L202.592 143.019" stroke="#242632" stroke-width="3" stroke-miterlimit="10"/>
<path d="M135.899 37.1471C139.642 37.1471 142.677 34.1122 142.677 30.3685C142.677 26.6247 139.642 23.5898 135.899 23.5898C132.155 23.5898 129.12 26.6247 129.12 30.3685C129.12 34.1122 132.155 37.1471 135.899 37.1471Z" fill="#DCDEF0"/>
<path d="M145.467 31.0348C149.21 31.0348 152.245 27.9999 152.245 24.2562C152.245 20.5124 149.21 17.4775 145.467 17.4775C141.723 17.4775 138.688 20.5124 138.688 24.2562C138.688 27.9999 141.723 31.0348 145.467 31.0348Z" fill="#DCDEF0"/>
<path d="M157.621 29.6657C161.365 29.6657 164.4 26.6308 164.4 22.887C164.4 19.1433 161.365 16.1084 157.621 16.1084C153.878 16.1084 150.843 19.1433 150.843 22.887C150.843 26.6308 153.878 29.6657 157.621 29.6657Z" fill="#DCDEF0"/>
<path d="M188.048 132.305L202.603 103.873" stroke="#242632" stroke-width="3" stroke-miterlimit="10"/>
<path d="M151.867 113.329L153.413 116.465L156.869 116.966L154.368 119.404L154.955 122.844L151.867 121.217L148.773 122.844L149.365 119.404L146.864 116.966L150.32 116.465L151.867 113.329Z" fill="white"/>
<path d="M290.651 163.237H225.728C222.7 163.237 220.245 165.692 220.245 168.72V195.984C220.245 199.012 222.7 201.467 225.728 201.467H290.651C293.679 201.467 296.133 199.012 296.133 195.984V168.72C296.133 165.692 293.679 163.237 290.651 163.237Z" fill="#F5D829"/>
<path d="M290.651 239.404H225.728C222.7 239.404 220.245 241.859 220.245 244.887V289.799C220.245 292.827 222.7 295.282 225.728 295.282H290.651C293.679 295.282 296.133 292.827 296.133 289.799V244.887C296.133 241.859 293.679 239.404 290.651 239.404Z" fill="#DCDEF0"/>
<path d="M238.88 213.809H224.005C221.929 213.809 220.245 215.492 220.245 217.569V223.302C220.245 225.379 221.929 227.062 224.005 227.062H238.88C240.957 227.062 242.64 225.379 242.64 223.302V217.569C242.64 215.492 240.957 213.809 238.88 213.809Z" fill="#F5D829"/>
<path d="M292.373 213.809H277.499C275.422 213.809 273.739 215.492 273.739 217.569V223.302C273.739 225.379 275.422 227.062 277.499 227.062H292.373C294.45 227.062 296.133 225.379 296.133 223.302V217.569C296.133 215.492 294.45 213.809 292.373 213.809Z" fill="#F5D829"/>
<path d="M265.627 213.809H250.752C248.675 213.809 246.992 215.492 246.992 217.569V223.302C246.992 225.379 248.675 227.062 250.752 227.062H265.627C267.703 227.062 269.387 225.379 269.387 223.302V217.569C269.387 215.492 267.703 213.809 265.627 213.809Z" fill="#F5D829"/>
<path d="M152.325 314.213L138.688 217.467" stroke="white" stroke-width="3" stroke-miterlimit="10"/>
<path d="M228.949 189.586H288.363" stroke="white" stroke-width="3" stroke-miterlimit="10"/>
<path d="M228.699 258.294H288.117" stroke="white" stroke-width="3" stroke-miterlimit="10"/>
<path d="M228.699 265.61H288.117" stroke="white" stroke-width="3" stroke-miterlimit="10"/>
<path d="M228.699 273.152H288.117" stroke="white" stroke-width="3" stroke-miterlimit="10"/>
<path d="M142.315 82.752L139.365 101.013" stroke="#242632" stroke-width="3" stroke-miterlimit="10"/>
<path d="M70.9013 352.386H344.021" stroke="#242632" stroke-width="6" stroke-miterlimit="10"/>
<path d="M290.288 303.708H227.781C224.753 303.708 222.299 306.163 222.299 309.191V319.233C222.299 322.261 224.753 324.716 227.781 324.716H290.288C293.316 324.716 295.771 322.261 295.771 319.233V309.191C295.771 306.163 293.316 303.708 290.288 303.708Z" fill="#F5D829"/>
<path d="M51.8773 64.8643H48.832V67.3176H51.8773V64.8643Z" fill="#242632"/>
<path d="M53.6374 61.7559H47.072V64.2091H53.6374V61.7559Z" fill="#242632"/>
<path d="M68.9282 86.5713C68.9282 86.5713 70.5281 90.9233 70.4321 92.3259" stroke="white" stroke-width="6" stroke-miterlimit="10"/>
</svg>
