<svg width="64" height="26" viewBox="0 0 64 26" fill="none" xmlns="http://www.w3.org/2000/svg">
<g clip-path="url(#clip0_1064_5369)">
<path d="M6.75427 25.5899L0.00390625 18.8394V18.2305H6.75427V25.5899Z" fill="#961B38"/>
<path fill-rule="evenodd" clip-rule="evenodd" d="M64.0003 0L59.1492 9.41406L63.9997 18.8271H0V7C0 3.13401 3.13401 0 7 0H64.0003Z" fill="#E63950"/>
</g>
<defs>
<clipPath id="clip0_1064_5369">
<rect width="64" height="26" fill="white"/>
</clipPath>
</defs>
</svg>
