<svg width="103" height="95" viewBox="0 0 103 95" fill="none" xmlns="http://www.w3.org/2000/svg">
<rect x="10.0527" y="5.28418" width="82.5934" height="82.5934" rx="41.2967" fill="#D4F7DF"/>
<rect x="18.3916" y="13.6221" width="65.9159" height="65.9159" rx="32.9579" fill="#FAFAFA"/>
<path d="M67.8947 17.924C72.8856 20.8057 77.0374 24.9409 79.939 29.9202C82.8406 34.8996 84.3914 40.5504 84.438 46.3133C84.4846 52.0762 83.0252 57.7513 80.2044 62.7769C77.3836 67.8024 73.2992 72.0042 68.3555 74.9661C63.4118 77.928 57.7802 79.5475 52.0183 79.6641C46.2564 79.7807 40.564 78.3904 35.5045 75.631C30.445 72.8715 26.1939 68.8385 23.1721 63.9311C20.1503 59.0238 18.4625 53.4124 18.2758 47.6523L18.2593 46.5802L18.2758 45.5081C18.4611 39.7933 20.1241 34.2241 23.1025 29.3434C26.0809 24.4627 30.2732 20.437 35.2706 17.6589C40.2681 14.8807 45.9001 13.4449 51.6176 13.4913C57.3352 13.5378 62.9431 15.065 67.8947 17.924ZM63.6162 37.6226C63.0464 37.0529 62.2883 36.7106 61.4841 36.6601C60.6799 36.6095 59.8849 36.8541 59.2482 37.348L58.9372 37.6226L48.0406 48.516L43.762 44.2407L43.4509 43.966C42.8142 43.4725 42.0193 43.2282 41.2154 43.2789C40.4114 43.3297 39.6535 43.6719 39.0839 44.2416C38.5142 44.8112 38.172 45.5691 38.1213 46.3731C38.0705 47.177 38.3148 47.9719 38.8084 48.6086L39.083 48.9197L45.7011 55.5377L46.0121 55.8124C46.5924 56.2626 47.3061 56.507 48.0406 56.507C48.7751 56.507 49.4887 56.2626 50.069 55.8124L50.38 55.5377L63.6162 42.3016L63.8908 41.9906C64.3847 41.3539 64.6293 40.5589 64.5787 39.7547C64.5282 38.9505 64.1859 38.1924 63.6162 37.6226Z" fill="#1CAE64"/>
<rect x="0.125488" y="24.8672" width="6.35334" height="6.35334" rx="2" transform="rotate(-45 0.125488 24.8672)" fill="#ACEEC5"/>
<rect x="64.0557" y="89.9873" width="6.35334" height="6.35334" rx="2" transform="rotate(-45 64.0557 89.9873)" fill="#ACEEC5"/>
<rect x="75.5718" y="5.01172" width="6.35334" height="6.35334" rx="2" transform="rotate(-45 75.5718 5.01172)" fill="#ACEEC5"/>
<rect x="17.2002" y="6.99805" width="3.17667" height="3.17667" rx="1.58833" transform="rotate(-45 17.2002 6.99805)" fill="#ACEEC5"/>
<rect x="95.8228" y="56.3721" width="4.765" height="4.765" rx="2" transform="rotate(-45 95.8228 56.3721)" fill="#ACEEC5"/>
<rect x="3.69922" y="75.7617" width="4.765" height="4.765" rx="2" transform="rotate(-45 3.69922 75.7617)" fill="#ACEEC5"/>
<rect x="81.5278" y="83.3066" width="3.17667" height="3.17667" rx="1.58833" transform="rotate(-45 81.5278 83.3066)" fill="#ACEEC5"/>
<rect x="12.832" y="87.7422" width="3.17667" height="3.17667" rx="1.58833" transform="rotate(-45 12.832 87.7422)" fill="#ACEEC5"/>
<rect x="81.9248" y="16.2676" width="3.17667" height="3.17667" rx="1.58833" transform="rotate(-45 81.9248 16.2676)" fill="#ACEEC5"/>
</svg>
