<svg width="14" height="18" viewBox="0 0 14 18" fill="none" xmlns="http://www.w3.org/2000/svg">
<path d="M3.875 7.12529H7.9375C8.51766 7.12529 9.07406 7.35576 9.4843 7.766C9.89453 8.17623 10.125 8.73263 10.125 9.31279C10.125 9.89295 9.89453 10.4494 9.4843 10.8596C9.07406 11.2698 8.51766 11.5003 7.9375 11.5003H7M3.875 7.12529L5.75 5.25029M3.875 7.12529L5.75 9.00029M13.25 2.96446V17.1253L10.125 15.8753L7 17.1253L3.875 15.8753L0.75 17.1253V2.96446C0.75 2.04113 1.42167 1.25029 2.33917 1.14363C5.43599 0.784156 8.56401 0.784156 11.6608 1.14363C12.5775 1.25029 13.25 2.04113 13.25 2.96446Z" stroke="#FF6868" stroke-width="1.3" stroke-linecap="round" stroke-linejoin="round"/>
</svg>
