<svg width="9" height="16" viewBox="0 0 9 16" fill="none" xmlns="http://www.w3.org/2000/svg">
<path d="M7.5 14.6004L2.06667 9.16706C1.425 8.52539 1.425 7.47539 2.06667 6.83372L7.5 1.40039" stroke="#808080" stroke-width="1.5" stroke-miterlimit="10" stroke-linecap="round" stroke-linejoin="round"/>
</svg>
