<svg width="12" height="12" viewBox="0 0 12 12" fill="none" xmlns="http://www.w3.org/2000/svg">
<path d="M6.865 1.75482L7.745 3.51482C7.865 3.75982 8.185 3.99482 8.455 4.0398L10.05 4.3048C11.07 4.4748 11.31 5.2148 10.575 5.9448L9.335 7.1848C9.125 7.3948 9.01 7.7998 9.075 8.0898L9.43001 9.6248C9.71 10.8398 9.065 11.3098 7.99 10.6748L6.495 9.7898C6.225 9.6298 5.78 9.6298 5.505 9.7898L4.01 10.6748C2.93995 11.3098 2.28995 10.8348 2.56995 9.6248L2.92495 8.0898C2.98995 7.7998 2.87495 7.3948 2.66495 7.1848L1.42495 5.9448C0.694954 5.2148 0.929955 4.4748 1.94995 4.3048L3.54495 4.0398C3.80995 3.99482 4.13 3.75982 4.25 3.51482L5.13 1.75482C5.61 0.799824 6.39 0.799824 6.865 1.75482Z" fill="#FFC700" stroke="#FFC700" stroke-width="1.5" stroke-linecap="round" stroke-linejoin="round"/>
</svg>
