<svg width="15" height="19" viewBox="0 0 15 19" fill="none" xmlns="http://www.w3.org/2000/svg">
<path fill-rule="evenodd" clip-rule="evenodd" d="M14.1897 5.62745V12.6896H13.1032V5.62745H10.9302C10.498 5.62745 10.0835 5.45574 9.77783 5.15011C9.47219 4.84448 9.30049 4.42995 9.30049 3.99773V1.82476H3.32485C3.03669 1.82476 2.76034 1.93923 2.55659 2.14299C2.35283 2.34674 2.23836 2.62309 2.23836 2.91124V12.6896H1.15188V2.91124C1.15188 2.33494 1.38082 1.78224 1.78833 1.37473C2.19584 0.967218 2.74854 0.738281 3.32485 0.738281L9.30049 0.738281L14.1897 5.62745ZM7.51866 16.8627C7.52488 17.0339 7.56686 17.2019 7.64189 17.3559C7.71693 17.5099 7.82336 17.6465 7.95434 17.7569C8.09558 17.8743 8.26906 17.9655 8.47477 18.0307C8.68047 18.0966 8.92131 18.1296 9.19728 18.1296C9.56451 18.1296 9.87524 18.0724 10.1295 17.9579C10.3866 17.8435 10.5822 17.6841 10.7162 17.4799C10.8532 17.2677 10.9239 17.0196 10.9193 16.7671C10.9193 16.5238 10.8705 16.321 10.7727 16.1587C10.6733 15.9959 10.5327 15.8621 10.3652 15.7708C10.1733 15.6642 9.96635 15.5873 9.75138 15.5427L9.07668 15.3862C8.91758 15.3561 8.76724 15.2907 8.63665 15.195C8.58728 15.1567 8.54753 15.1073 8.52056 15.0509C8.49359 14.9945 8.48014 14.9326 8.48129 14.8701C8.48129 14.7007 8.54792 14.5616 8.6812 14.4529C8.81737 14.3428 9.00316 14.2878 9.23856 14.2878C9.39357 14.2878 9.52757 14.3124 9.64056 14.3617C9.74473 14.4032 9.83641 14.471 9.90675 14.5583C9.97362 14.639 10.0185 14.7355 10.0371 14.8386H10.852C10.8383 14.6176 10.7634 14.4047 10.6358 14.2237C10.4989 14.0283 10.311 13.8742 10.0925 13.7782C9.82588 13.6607 9.53634 13.6043 9.24508 13.6131C8.92638 13.6131 8.64498 13.6674 8.40089 13.7761C8.15751 13.884 7.96666 14.0364 7.82831 14.2335C7.69069 14.4312 7.62188 14.6626 7.62188 14.9277C7.62188 15.1465 7.66642 15.3362 7.75552 15.497C7.84461 15.6578 7.97172 15.7908 8.13687 15.8958C8.30274 15.9994 8.49831 16.0765 8.72357 16.1272L9.39501 16.2837C9.61955 16.3365 9.78687 16.4064 9.89697 16.4933C9.9511 16.5347 9.99448 16.5885 10.0234 16.6501C10.0524 16.7118 10.066 16.7795 10.0632 16.8475C10.0657 16.9596 10.0334 17.0696 9.97085 17.1626C9.90084 17.258 9.80457 17.3308 9.6938 17.3723C9.57211 17.423 9.42254 17.4484 9.24508 17.4484C9.1176 17.4484 9.00171 17.4339 8.89741 17.4049C8.80071 17.3791 8.70919 17.3369 8.62687 17.28C8.55463 17.233 8.49277 17.1718 8.44512 17.1001C8.39747 17.0283 8.36503 16.9475 8.34982 16.8627H7.51866ZM3.47043 13.7022H4.44066L3.05648 15.8827L4.41893 18.047H3.43241L2.5089 16.5096H2.47087L1.5441 18.047H0.608643L1.95588 15.8567L0.62168 13.7022H1.63319L2.53715 15.2645H2.57626L3.47043 13.7022ZM5.55974 17.3147H7.4035V18.047H4.70033V13.7022H5.55974V17.3147ZM13.8561 13.7022H14.8263L13.4422 15.8827L14.8046 18.047H13.8181L12.8946 16.5096H12.8565L11.9298 18.047H10.9943L12.3416 15.8567L11.0074 13.7022H12.0189L12.9228 15.2645H12.9619L13.8561 13.7022Z" fill="#404040"/>
</svg>
